Variation in Human Navigation Strategies
…
#ggsave("shortCut.png",width=12,height = 5)

Get Frequency table for strategy use in different conditions

dfs_sum <- dfstrategy%>%group_by(Instr,Strategy)%>%
  summarise(
    n=n()
  )
dfs_sum [nrow(dfs_sum ) + 1,] <-  c('Shortcut','13',0)
dfs_sum$n <- as.numeric(dfs_sum$n)
dfs_sum

## # A tibble: 28 x 3
## # Groups:   Instr [2]
##    Instr     Strategy     n
##  * <chr>     <fct>    <dbl>
##  1 Goto Goal 1         1510
##  2 Goto Goal 2          540
##  3 Goto Goal 3         1121
##  4 Goto Goal 4          444
##  5 Goto Goal 5           20
##  6 Goto Goal 6           28
##  7 Goto Goal 7           26
##  8 Goto Goal 8           35
##  9 Goto Goal 9          185
## 10 Goto Goal 10          31
## #  with 18 more rows
…
#ggsave("simshortCut.png",width=10,height = 5)

Show simulated results are similar to human results

For more discussions on these results, see section 3.2 in the paper

dfs_sum

## # A tibble: 28 x 3
## # Groups:   Instr [2]
##    Instr     Strategy     n
##  * <chr>     <fct>    <dbl>
##  1 Goto Goal 1         1510
##  2 Goto Goal 2          540
##  3 Goto Goal 3         1121
##  4 Goto Goal 4          444
##  5 Goto Goal 5           20
##  6 Goto Goal 6           28
##  7 Goto Goal 7           26
##  8 Goto Goal 8           35
##  9 Goto Goal 9          185
## 10 Goto Goal 10          31
## #  with 18 more rows
…
